<svg width="20" height="21" viewBox="0 0 20 21" fill="none" xmlns="http://www.w3.org/2000/svg">
<path d="M14.12 20.0526C13.243 20.0526 12.3741 19.8582 11.5903 19.4885C11.0329 19.5799 10.5534 19.6229 10.0984 19.6229C4.81018 19.6229 0.507812 15.3726 0.507812 10.1483C0.507812 9.63956 0.558319 9.11023 0.661621 8.53833C0.227966 7.71481 0 6.79562 0 5.86118C0 2.65836 2.63824 0.0526123 5.8812 0.0526123C6.89041 0.0526123 7.87643 0.307434 8.75107 0.792053C9.14948 0.740784 9.58542 0.716675 10.0984 0.716675C12.6538 0.716675 15.0526 1.69522 16.853 3.4718C18.6557 5.25082 19.6484 7.62204 19.6484 10.1486C19.6484 10.818 19.6028 11.3858 19.5059 11.9108C19.834 12.6437 20 13.4272 20 14.244C20 17.4469 17.3622 20.0526 14.12 20.0526ZM11.837 17.8575L12.077 17.985C12.6981 18.3154 13.4045 18.4901 14.12 18.4901C16.5007 18.4901 18.4375 16.5854 18.4375 14.244C18.4375 13.5801 18.2875 12.9477 17.9915 12.3642L17.8645 12.1136L17.926 11.8396C18.0351 11.3537 18.0859 10.8165 18.0859 10.1486C18.0859 5.80945 14.5027 2.27917 10.0984 2.27917C9.54849 2.27917 9.11179 2.30969 8.72375 2.37546L8.43216 2.42474L8.181 2.26865C7.49313 1.84109 6.69785 1.61511 5.8812 1.61511C3.49991 1.61511 1.5625 3.51987 1.5625 5.86118C1.5625 6.61649 1.76697 7.35791 2.15378 8.00534L2.30957 8.26627L2.24823 8.56396C2.12845 9.14365 2.07031 9.66183 2.07031 10.1483C2.07031 14.5111 5.67169 18.0604 10.0984 18.0604C10.5261 18.0604 10.9937 18.0114 11.5698 17.9063L11.837 17.8575ZM15.0391 12.1957C15.0391 11.6339 14.9281 11.1508 14.7069 10.7599C14.4856 10.3706 14.1745 10.0447 13.7831 9.79031C13.3983 9.54129 12.926 9.32797 12.3805 9.15341C11.8413 8.98236 11.2315 8.82489 10.5682 8.68314C10.0433 8.56259 9.66141 8.46875 9.43375 8.40634C9.21127 8.34546 8.99002 8.25909 8.77426 8.15198C8.56628 8.04868 8.40256 7.92432 8.28476 7.78394C8.1749 7.64996 8.08594 7.49524 8.08594 7.30969C8.08594 7.0065 8.28766 6.75107 8.63022 6.52844C8.98468 6.29681 9.46228 6.20099 10.0497 6.20099C10.6816 6.20099 11.1435 6.28629 11.4185 6.49411C11.7024 6.70743 11.9498 7.01199 12.1538 7.3988C12.3306 7.70093 12.4899 7.91165 12.6433 8.04654C12.8082 8.19089 13.0464 8.25574 13.3499 8.25574C13.6836 8.25574 13.9676 8.14725 14.1913 7.91547C14.415 7.68491 14.5703 7.42001 14.5703 7.12888C14.5703 6.8269 14.4412 6.5144 14.2711 6.20038C14.1022 5.88895 13.8354 5.58987 13.4743 5.30911C13.1169 5.03079 12.6605 4.80573 12.1213 4.63895C11.5836 4.47186 10.9395 4.38855 10.2071 4.38855C9.2923 4.38855 8.48251 4.51413 7.80334 4.76453C7.1138 5.01752 6.57745 5.38846 6.21231 5.86255C5.84213 6.34045 5.625 6.89542 5.625 7.51141C5.625 8.15778 5.83282 8.70587 6.18469 9.14426C6.53168 9.57486 7.00485 9.9191 7.59384 10.1681C8.16818 10.4106 8.89023 10.625 9.74091 10.8064C10.3664 10.9378 10.8725 11.0623 11.2456 11.1775C11.6014 11.2875 11.8971 11.4491 12.121 11.6569C12.3329 11.8544 12.449 12.1074 12.449 12.4292C12.449 12.836 12.2372 13.1697 11.8291 13.4465C11.4117 13.7298 10.8568 13.8417 10.1791 13.8417C9.68567 13.8417 9.28543 13.8028 8.98834 13.6622C8.69263 13.5244 8.461 13.3455 8.30124 13.135C8.13263 12.9138 7.9744 12.6361 7.82913 12.3047C7.69943 12.0016 7.53876 11.7656 7.34894 11.6069C7.15134 11.4412 6.90826 11.3417 6.62689 11.3417C6.28433 11.3417 5.9964 11.4636 5.77118 11.6729C5.54489 11.8847 5.42969 12.1441 5.42969 12.4423C5.42969 12.9203 5.60623 13.4158 5.95566 13.9138C6.29852 14.4078 6.75369 14.8091 7.30453 15.1046C8.07388 15.5113 9.06174 15.7167 10.2393 15.7167C11.2192 15.7167 12.0816 15.5658 12.7997 15.2693C13.5258 14.9701 14.0857 14.5475 14.4652 14.0138C14.846 13.4787 15.0383 12.8669 15.0391 12.1957Z" fill="#1C9ED1"/>
</svg>
