<svg width="41" height="38" viewBox="0 0 41 38" fill="none" xmlns="http://www.w3.org/2000/svg">
<path d="M26.8461 21.7736C26.3285 21.7736 25.91 22.1921 25.91 22.7097V27.7207C25.91 28.822 25.0234 29.7141 23.9386 29.7141H12.4023C11.6423 29.7141 10.965 30.1656 10.6842 30.865L8.7679 35.6777L6.82957 30.8595C6.54873 30.1601 5.87142 29.7086 5.11151 29.7086H4.7701C3.65776 29.7086 2.76019 28.7945 2.76019 27.6766V15.2592C2.76019 14.1469 3.66327 13.2493 4.7701 13.2493H9.4342C9.95182 13.2493 10.3703 12.8308 10.3703 12.3132C10.3703 11.7956 9.95182 11.3771 9.4342 11.3771H4.7701C2.62803 11.3771 0.887939 13.1172 0.887939 15.2592V27.6821C0.887939 29.8352 2.62803 31.5863 4.7701 31.5863H5.10049L7.04983 36.4321C7.04983 36.4377 7.05534 36.4376 7.05534 36.4432C7.34168 37.137 8.00798 37.583 8.75688 37.583C9.50027 37.583 10.1611 37.159 10.4529 36.4927C10.4584 36.4872 10.4584 36.4817 10.4584 36.4762C10.4639 36.4597 10.4749 36.4432 10.4805 36.4266L12.4078 31.5808H23.9331C26.0531 31.5808 27.7767 29.8462 27.7767 27.7152V22.7042C27.7822 22.1976 27.3637 21.7736 26.8461 21.7736Z" fill="#111111"/>
<path d="M40.8879 4.59844C40.8879 2.44536 39.1423 0.69426 37.0058 0.69426H15.1115C12.9694 0.69426 11.2293 2.44536 11.2293 4.59844V17.0214C11.2293 19.1634 12.9694 20.9035 15.1115 20.9035H29.3296L31.2899 25.7493C31.2899 25.7548 31.2954 25.7603 31.3009 25.7658C31.5873 26.4542 32.2481 26.9002 32.997 26.9002C33.7404 26.9002 34.3956 26.4762 34.693 25.8154C34.693 25.8099 34.6985 25.8044 34.6985 25.7989C34.704 25.7824 34.715 25.7658 34.7205 25.7493L36.6589 20.9035H37.0003C39.1423 20.9035 40.8824 19.1634 40.8824 17.0214V4.59844H40.8879ZM37.0003 19.0313H36.6368C35.8824 19.0313 35.2051 19.4938 34.9188 20.2042L33.0025 25.0004L31.0641 20.2042C31.0641 20.2042 31.0641 20.2042 31.0641 20.1987C30.7778 19.4883 30.106 19.0313 29.3516 19.0313H15.1115C13.9992 19.0313 13.1016 18.1282 13.1016 17.0214V4.59844C13.1016 3.4751 14.0047 2.56651 15.1115 2.56651H37.0058C38.1181 2.56651 39.0157 3.4806 39.0157 4.59844V17.0214C39.0157 18.1282 38.1126 19.0313 37.0003 19.0313Z" fill="#111111"/>
<path d="M33.7404 8.28787C32.5509 8.28787 31.5873 9.25153 31.5873 10.441C31.5873 11.6304 32.5509 12.594 33.7404 12.594C34.9298 12.594 35.8934 11.6304 35.8934 10.441C35.8934 9.25703 34.9298 8.28787 33.7404 8.28787ZM33.7404 11.2174C33.3108 11.2174 32.9639 10.8705 32.9639 10.441C32.9639 10.0114 33.3108 9.66453 33.7404 9.66453C34.1699 9.66453 34.5168 10.0114 34.5168 10.441C34.5168 10.8705 34.1699 11.2174 33.7404 11.2174Z" fill="#111111"/>
<path d="M26.1082 8.28787C24.9188 8.28787 23.9551 9.25153 23.9551 10.441C23.9551 11.6304 24.9188 12.594 26.1082 12.594C27.2976 12.594 28.2613 11.6304 28.2613 10.441C28.2613 9.25703 27.2921 8.28787 26.1082 8.28787ZM26.1082 11.2174C25.6787 11.2174 25.3318 10.8705 25.3318 10.441C25.3318 10.0114 25.6787 9.66453 26.1082 9.66453C26.5377 9.66453 26.8846 10.0114 26.8846 10.441C26.8846 10.8705 26.5322 11.2174 26.1082 11.2174Z" fill="#111111"/>
<path d="M18.6523 8.28787C17.4628 8.28787 16.4992 9.25153 16.4992 10.441C16.4992 11.6304 17.4628 12.594 18.6523 12.594C19.8417 12.594 20.8053 11.6304 20.8053 10.441C20.8053 9.25703 19.8417 8.28787 18.6523 8.28787ZM18.6523 11.2174C18.2227 11.2174 17.8758 10.8705 17.8758 10.441C17.8758 10.0114 18.2227 9.66453 18.6523 9.66453C19.0818 9.66453 19.4287 10.0114 19.4287 10.441C19.4287 10.8705 19.0818 11.2174 18.6523 11.2174Z" fill="#111111"/>
</svg>
