<svg width="39" height="52" viewBox="0 0 39 52" fill="none" xmlns="http://www.w3.org/2000/svg">
<path d="M38.1411 9.5402H5.36119C2.87471 9.5402 0.860199 7.59167 0.860199 5.18658C0.860199 3.97999 1.36591 2.89566 2.17511 2.10485C2.76514 1.53415 3.51532 1.12651 4.34977 0.938965C4.27383 1.25693 4.23175 1.58307 4.23175 1.92547C4.23175 4.33055 6.24627 6.27907 8.73275 6.27907H36.7756C36.9526 7.36336 37.4078 8.4477 38.1411 9.5402Z" fill="#1CA57C"/>
<path d="M38.862 9.09121C37.0956 6.46315 37.0956 3.9079 38.862 1.27985C39.0327 1.02541 39.0461 0.700191 38.8963 0.433223C38.7466 0.166256 38.4581 0 38.1436 0H5.36389C2.41534 0 0.0162131 2.31508 0.00444505 5.16485C0.0042395 5.17233 0 5.1786 0 5.18614V40.2465C0 42.5999 1.97978 44.5144 4.41289 44.5144H13.8225C13.8612 44.9436 13.8877 45.3744 13.8877 45.8076V48C13.8877 48.4575 14.2708 48.8284 14.7442 48.8284H26.2172C26.6906 48.8284 27.0737 48.4575 27.0737 48V45.484C27.0737 45.1583 27.1038 44.837 27.1247 44.5144H38.1411C38.6145 44.5144 38.9975 44.1434 38.9975 43.6859V9.54344C38.9975 9.54172 38.9965 9.54031 38.9965 9.53859C38.9958 9.3731 38.9179 9.17458 38.862 9.09121ZM5.36389 1.65684H36.6815C35.529 4.00337 35.529 6.36769 36.6815 8.71421H5.36389C3.35233 8.71421 1.71631 7.13139 1.71631 5.18573C1.71631 3.24006 3.35232 1.65684 5.36389 1.65684ZM25.3607 47.1715H15.6007V45.8076C15.6007 38.0271 10.8566 36.7163 10.8566 29.4596V28.1502C10.8566 27.5936 11.325 27.1405 11.9004 27.1405C12.4759 27.1405 12.9443 27.5936 12.9443 28.1502V32.0043C12.9443 32.4618 13.3273 32.8327 13.8007 32.8327C14.2741 32.8327 14.6572 32.4618 14.6572 32.0043V16.5515C14.6572 15.9949 15.1256 15.5418 15.7011 15.5418C16.2765 15.5418 16.7449 15.9949 16.7449 16.5515V29.0336C16.7449 29.4911 17.128 29.862 17.6014 29.862C18.0748 29.862 18.4579 29.4911 18.4579 29.0336V14.1208C18.4579 13.5642 18.9263 13.1112 19.5017 13.1112C20.0771 13.1112 20.5455 13.5642 20.5455 14.1208V29.0336C20.5455 29.4911 20.9286 29.862 21.402 29.862C21.8754 29.862 22.2585 29.4911 22.2585 29.0336V18.1104C22.2585 17.5538 22.7269 17.1008 23.3023 17.1008C23.8778 17.1008 24.3462 17.5538 24.3462 18.1104V29.0336C24.3462 29.4911 24.7293 29.862 25.2027 29.862C25.6761 29.862 26.0591 29.4911 26.0591 29.0336V23.2096C26.0591 22.653 26.5275 22.1999 27.103 22.1999C27.6784 22.1999 28.1468 22.653 28.1468 23.2096V32.5572C28.1468 38.2599 25.3607 39.374 25.3607 45.4839V47.1715ZM27.3246 42.8575C28.051 38.8102 29.8598 37.825 29.8598 32.5572V23.2096C29.8598 21.7392 28.6227 20.5431 27.103 20.5431C26.7341 20.5431 26.3812 20.6135 26.0591 20.7417V18.1104C26.0591 16.6401 24.8221 15.4439 23.3023 15.4439C22.9335 15.4439 22.5805 15.5143 22.2585 15.6425V14.1208C22.2585 12.6504 21.0215 11.4543 19.5017 11.4543C17.9945 11.4543 16.7658 12.6302 16.7449 14.0836C16.4229 13.9554 16.0708 13.885 15.7011 13.885C14.1813 13.885 12.9443 15.0811 12.9443 16.5515V25.6823C12.6222 25.5541 12.2693 25.4837 11.9004 25.4837C10.3807 25.4837 9.14362 26.6798 9.14362 28.1502V29.4596C9.14362 36.5743 12.4297 37.3583 13.5796 42.8575H4.41289C2.92408 42.8575 1.71296 41.6861 1.71296 40.2464V8.97167C2.67117 9.83685 3.95286 10.3711 5.36388 10.3711H37.2846V42.8575H27.3246Z" fill="#A6D9EC"/>
<path d="M11.5309 52L12.211 48.1915C12.1135 47.0229 13.0166 46.1071 14.2478 46.1261L26.2902 46.2562C27.5046 46.275 28.6059 47.1973 28.7908 48.3505L29.1613 52H11.5309Z" fill="white"/>
</svg>
