<svg width="47" height="52" viewBox="0 0 47 52" fill="none" xmlns="http://www.w3.org/2000/svg">
<path d="M37.1167 45.1074C36.7002 45.1074 36.3631 45.5056 36.3631 45.9977V49.3289C36.3631 49.8201 36.0254 50.2192 35.6096 50.2192H2.26074C1.84494 50.2192 1.50716 49.8201 1.50716 49.3289V2.67115C1.50716 2.17987 1.84494 1.78077 2.26074 1.78077H27.0347V11.9098C27.0347 12.4019 27.3717 12.8001 27.7882 12.8001H36.3632V16.7813C36.3632 17.2735 36.7002 17.6717 37.1167 17.6717C37.5333 17.6717 37.8703 17.2735 37.8703 16.7813V11.9063C37.8703 11.6894 37.7591 11.4066 37.6495 11.2768C36.693 10.1471 41.1085 15.3617 28.321 0.259983C28.1821 0.0959387 27.9456 0 27.786 0H2.26074C1.01409 0 0 1.19819 0 2.67115V49.3288C0 50.8018 1.01409 52 2.26074 52H35.6096C36.8562 52 37.8703 50.8018 37.8703 49.3288V45.9977C37.8703 45.5056 37.5333 45.1074 37.1167 45.1074ZM28.5418 11.0194V3.04141C37.8018 13.9791 34.6031 10.2009 35.2961 11.0194H28.5418Z" fill="#A6D9EC"/>
<path d="M24.9188 6.74902H6.49513C6.0786 6.74902 5.74155 7.14727 5.74155 7.63941C5.74155 8.13155 6.0786 8.52979 6.49513 8.52979H24.9188C25.3354 8.52979 25.6724 8.13155 25.6724 7.63941C25.6724 7.14727 25.3354 6.74902 24.9188 6.74902Z" fill="#1CA57C"/>
<path d="M24.9188 13.4139H6.49513C6.0786 13.4139 5.74155 13.8121 5.74155 14.3043C5.74155 14.7964 6.0786 15.1947 6.49513 15.1947H24.9188C25.3354 15.1947 25.6724 14.7964 25.6724 14.3043C25.6724 13.8121 25.3354 13.4139 24.9188 13.4139Z" fill="#1CA57C"/>
<path d="M40.3509 35.4649L39.9248 35.1175L41.1237 33.2458C41.3746 32.8537 41.3091 32.2955 40.9772 31.9981C40.6446 31.7024 40.1728 31.779 39.9212 32.1711L38.6827 34.1048L33.4664 29.8521C33.2721 29.694 32.9999 29.692 32.924 29.7051C29.7706 30.2808 29.0075 28.6539 28.7057 27.3818C28.6145 26.9974 28.3179 26.7314 27.9801 26.7314H23.7854C23.4079 26.7314 23.0892 27.0609 23.0384 27.5026C22.8471 29.1773 22.3724 30.0938 21.4577 30.4564V28.2791C21.4577 27.5974 21.7653 26.9696 22.2657 26.6374L25.1748 24.6723H35.8567C36.2732 24.6723 36.6103 24.2741 36.6103 23.7819C36.6103 23.2898 36.2732 22.8915 35.8567 22.8915H25.0203C24.8758 22.8915 24.5676 23.0313 24.525 23.0602L21.5224 25.088C21.2057 25.2985 20.933 25.5755 20.7028 25.893L18.6104 24.3732C18.2564 24.1141 17.7913 24.2454 17.5742 24.6654C17.3557 25.0845 17.4668 25.6323 17.8215 25.8897L20.0289 27.4929C19.9814 27.7489 19.9505 28.0109 19.9505 28.2791V31.5181C19.9505 31.7642 20.0366 31.9998 20.189 32.1676C20.3288 32.3233 20.5135 32.4085 20.7041 32.4085C20.7203 32.4085 20.7365 32.4076 20.7534 32.4067C22.7271 32.2546 23.9569 30.9459 24.4168 28.5121H27.4407C28.0462 30.2999 29.4954 32.0047 32.8465 31.5099L39.4951 36.9309C39.9748 37.3251 40.0858 38.0869 39.7629 38.636C39.4318 39.2012 38.7967 39.3377 38.3183 38.9508C37.2865 38.1094 31.1621 33.1163 31.4316 33.3363C31.1086 33.0741 30.6207 33.1577 30.3837 33.5641C30.1505 33.9631 30.2338 34.5064 30.5656 34.7889C30.5682 34.7912 30.5694 34.7948 30.572 34.7971L30.5725 34.7975C30.5741 34.7988 30.5748 34.801 30.5765 34.8023C31.4775 35.5546 35.7759 39.1434 35.5005 38.9134C35.9634 39.2986 36.0775 40.0612 35.7566 40.6107C35.4231 41.1788 34.7694 41.3001 34.3039 40.9133L29.4078 36.8213C29.0686 36.537 28.5983 36.6335 28.3577 37.0344C28.1158 37.4372 28.2 37.9995 28.538 38.2813L32.0704 41.2298C32.5325 41.6185 32.6481 42.3819 32.3294 42.9297C32.0048 43.4846 31.3526 43.6286 30.8767 43.2315L27.373 40.3055C27.0372 40.0258 26.5636 40.1097 26.3199 40.5177C26.0793 40.9185 26.1588 41.4741 26.4987 41.7585L27.8263 42.8715C28.287 43.2558 28.4004 44.014 28.0758 44.5653C27.8398 44.9712 27.4295 45.1654 27.022 45.0714C27.1647 44.6776 27.2104 44.2858 27.2104 43.9888C27.2104 42.6315 26.3968 41.5678 25.388 41.3012L25.3949 41.2889C26.0975 40.0255 25.8206 38.2723 24.723 37.4265C24.1968 37.0144 23.5654 36.8709 22.9501 37.017C22.6719 37.0836 22.4146 37.2136 22.18 37.3853C21.999 37.0047 21.7465 36.673 21.429 36.4283C20.6038 35.7811 19.5628 35.8198 18.7784 36.4659C18.4226 35.4897 17.6056 34.8042 16.6542 34.7964C16.4704 33.2192 15.6255 32.1278 14.1471 31.6268C13.7453 31.4886 13.3302 31.7642 13.2154 32.2372C13.1006 32.7094 13.3317 33.2024 13.732 33.338C14.7574 33.6855 15.1873 34.2818 15.1949 35.4002C14.6538 35.9066 14.2994 36.68 14.2994 37.557C14.2994 39.076 15.3488 40.3125 16.6382 40.3125C16.6527 40.3125 16.6661 40.3077 16.6807 40.3074C16.5237 41.4433 16.9509 42.4924 17.7045 43.0828C18.1784 43.4494 18.7455 43.6232 19.3975 43.4919C19.532 44.1582 19.8665 44.7679 20.3862 45.1696C21.0828 45.7158 21.9895 45.8195 22.8227 45.2793C23.2162 46.1489 23.9833 46.7487 24.8746 46.7487C25.2426 46.7487 25.5984 46.6354 25.9241 46.4406C27.1203 47.2924 28.5839 46.836 29.3159 45.5775C29.5221 45.2264 29.6523 44.8399 29.7173 44.4441L30.0061 44.6853C31.1707 45.6602 32.771 45.3057 33.5702 43.941C33.7923 43.5597 33.9197 43.1357 33.9757 42.7034C35.1224 43.2378 36.3462 42.7342 36.9966 41.6237C37.2222 41.2373 37.3506 40.8077 37.4062 40.3704L37.4632 40.4168C38.6158 41.3536 40.2033 41.0096 41.0008 39.6516C41.801 38.2889 41.5164 36.4202 40.3509 35.4649ZM15.8066 37.5569C15.8066 37.0152 16.1797 36.5752 16.6382 36.5752C17.093 36.5752 17.4624 37.0152 17.4624 37.5569C17.4624 38.0943 17.093 38.5317 16.6382 38.5317C16.1797 38.5317 15.8066 38.0943 15.8066 37.5569ZM18.5346 41.5968C18.1419 41.2886 18.0321 40.6661 18.2954 40.1986L19.414 38.196C19.6736 37.736 20.1956 37.5991 20.6011 37.9161C20.9752 38.204 21.092 38.7872 20.8603 39.2645L19.7136 41.3089C19.4555 41.7773 18.9184 41.8925 18.5346 41.5968ZM21.2156 43.6827C20.8233 43.3801 20.7159 42.7523 20.9727 42.2889C22.3376 39.8705 21.9305 40.5968 22.708 39.1942C22.9638 38.7391 23.4857 38.5943 23.8951 38.9143C24.3143 39.2369 24.3708 39.8884 24.1364 40.3072L22.4019 43.4019C22.1378 43.8717 21.6103 43.9913 21.2156 43.6827ZM24.0459 43.9888C24.0459 43.4488 24.4176 43.0097 24.8746 43.0097C25.0975 43.0097 25.297 43.1062 25.4611 43.3001C25.6171 43.4784 25.7032 43.7227 25.7032 43.9888C25.7032 44.5418 25.3195 44.9679 24.8746 44.9679C24.4176 44.9679 24.0459 44.5288 24.0459 43.9888Z" fill="#A6D9EC"/>
<path d="M8.11374 31.1255L11.3556 33.3532C12.2904 34.0678 13.5368 33.773 14.1667 32.6883L18.4754 25.2681C19.0967 24.1982 18.8963 22.7402 18.0203 21.9576L16.1841 20.4517L8.11374 31.1255Z" fill="white"/>
<path d="M46.4286 31.1255L43.3334 33.3735C42.3986 34.0881 41.1522 33.7933 40.5223 32.7085L36.2136 25.2884C35.5923 24.2185 35.7927 22.7605 36.6687 21.9779L38.3583 20.4517L46.4286 31.1255Z" fill="white"/>
</svg>
