<svg width="40" height="41" viewBox="0 0 40 41" fill="none" xmlns="http://www.w3.org/2000/svg">
<path d="M30.289 9.50307V14.1228H21.7178V3.96655L30.289 9.50307Z" fill="#D2D2D2"/>
<path d="M7.0249 5.22266H10.905V8.90766H7.0249V5.22266Z" fill="#A6D9EC"/>
<path d="M14.2068 5.22266H18.0868V8.90766H14.2068V5.22266Z" fill="#A6D9EC"/>
<path d="M7.0249 12.2039H10.905V15.8889H7.0249V12.2039Z" fill="#A6D9EC"/>
<path d="M7.0249 19.1851H10.905V22.8701H7.0249V19.1851Z" fill="#A6D9EC"/>
<path d="M7.0249 26.1663H10.905V29.8513H7.0249V26.1663Z" fill="#A6D9EC"/>
<path d="M7.0249 33.1482H10.905V36.8332H7.0249V33.1482Z" fill="#A6D9EC"/>
<path d="M18.8921 18.9287H24.1966V22.6137H18.8921V18.9287Z" fill="#365B78"/>
<path d="M27.1333 18.9287H32.4378V22.6137H27.1333V18.9287Z" fill="#365B78"/>
<path d="M18.8921 25.3362H24.1966V29.0212H18.8921V25.3362Z" fill="#365B78"/>
<path d="M27.1333 25.3362H32.4378V29.0212H27.1333V25.3362Z" fill="#365B78"/>
<path d="M18.8921 40.3111V34.3349C18.8921 32.9037 20.0795 31.7434 21.5443 31.7434H21.5443C23.0091 31.7434 24.1965 32.9037 24.1965 34.3349V40.3111H18.8921Z" fill="#D2D2D2"/>
<path d="M27.1331 40.3111V34.3349C27.1331 32.9037 28.3205 31.7434 29.7853 31.7434H29.7853C31.2501 31.7434 32.4375 32.9037 32.4375 34.3349V40.3111H27.1331Z" fill="#D2D2D2"/>
<path d="M39.3604 39.6863H37.2334V14.0466C37.2334 13.7012 36.9473 13.4216 36.5938 13.4216H30.9282V9.50317C30.9282 9.29321 30.8202 9.09729 30.6415 8.98194L22.3574 3.63064V1.56128C22.3574 1.21582 22.0713 0.936279 21.7178 0.936279H3.39372C3.04017 0.936279 2.75408 1.21582 2.75408 1.56128V39.6863H0.63964C0.286092 39.6863 0 39.9658 0 40.3113C0 40.6567 0.286092 40.9363 0.63964 40.9363H39.3604C39.7139 40.9363 40 40.6567 40 40.3113C40 39.9658 39.7139 39.6863 39.3604 39.6863ZM29.6489 9.83948V13.4216H22.3574V5.12939L29.6489 9.83948ZM4.03336 2.18628H21.0781V13.4216H14.7355C14.3819 13.4216 14.0958 13.7012 14.0958 14.0466V39.6863H4.03336V2.18628ZM19.5315 39.6863V34.3347C19.5315 33.2501 20.4341 32.3682 21.5441 32.3682C22.6541 32.3682 23.5567 33.2501 23.5567 34.3347V39.6863H19.5315ZM27.7725 39.6863V34.3347C27.7725 33.2501 28.6751 32.3682 29.7851 32.3682C30.8951 32.3682 31.7977 33.2501 31.7977 34.3347V39.6863H27.7725ZM33.077 39.6863V34.3347C33.077 32.561 31.6004 31.1182 29.7851 31.1182C27.9699 31.1182 26.4932 32.561 26.4932 34.3347V39.6863H24.836V34.3347C24.836 32.561 23.3594 31.1182 21.5441 31.1182C19.7289 31.1182 18.2522 32.561 18.2522 34.3347V39.6863H15.3751V14.6716H35.9542V39.6863H33.077Z" fill="#444444"/>
</svg>
