<svg width="727" height="328" viewBox="0 0 727 328" fill="none" xmlns="http://www.w3.org/2000/svg">
<path d="M2.99989 57.6356L5.88664 62.6356L0.113139 62.6356L2.99989 57.6356ZM2.99999 200.865L3.50001 200.865L3.49998 200.869L2.99999 200.865ZM323 200.865L323.5 200.865L323.5 200.869L323 200.865ZM323 135L322.5 135L323 135ZM570 39L569.721 39.4152L569.708 39.4065L569.696 39.397L570 39ZM727 91.8652L721.824 94.4225L722.197 88.6611L727 91.8652ZM3.49989 63.6035L3.49989 67.5821L2.49989 67.5821L2.49989 63.6035L3.49989 63.6035ZM3.4999 71.5607L3.4999 75.5393L2.4999 75.5393L2.4999 71.5607L3.4999 71.5607ZM3.4999 79.5179L3.49991 83.4965L2.49991 83.4965L2.4999 79.5179L3.4999 79.5179ZM3.49991 87.4751L3.49991 91.4537L2.49991 91.4537L2.49991 87.4751L3.49991 87.4751ZM3.49992 95.4323L3.49992 99.4109L2.49992 99.4109L2.49992 95.4323L3.49992 95.4323ZM3.49992 103.389L3.49992 107.368L2.49992 107.368L2.49992 103.389L3.49992 103.389ZM3.49993 111.347L3.49993 115.325L2.49993 115.325L2.49993 111.347L3.49993 111.347ZM3.49993 119.304L3.49994 123.282L2.49994 123.282L2.49993 119.304L3.49993 119.304ZM3.49994 127.261L3.49994 131.24L2.49994 131.24L2.49994 127.261L3.49994 127.261ZM3.49995 135.218L3.49995 139.197L2.49995 139.197L2.49995 135.218L3.49995 135.218ZM3.49995 143.175L3.49995 147.154L2.49995 147.154L2.49995 143.175L3.49995 143.175ZM3.49996 151.133L3.49996 155.111L2.49996 155.111L2.49996 151.133L3.49996 151.133ZM3.49996 159.09L3.49997 163.068L2.49997 163.068L2.49996 159.09L3.49996 159.09ZM3.49997 167.047L3.49997 171.026L2.49997 171.026L2.49997 167.047L3.49997 167.047ZM3.49998 175.004L3.49998 178.983L2.49998 178.983L2.49998 175.004L3.49998 175.004ZM3.49998 182.961L3.49998 186.94L2.49998 186.94L2.49998 182.961L3.49998 182.961ZM3.49999 190.919L3.49999 194.897L2.49999 194.897L2.49999 190.919L3.49999 190.919ZM3.49999 198.876L3.49999 200.865L2.49999 200.865L2.49999 198.876L3.49999 198.876ZM3.49998 200.869C3.49516 201.552 3.49568 202.233 3.50151 202.91L2.50155 202.919C2.49567 202.236 2.49514 201.55 2.50001 200.862L3.49998 200.869ZM3.5998 206.944C3.65355 208.277 3.72816 209.599 3.8233 210.91L2.82592 210.982C2.73 209.661 2.65479 208.328 2.60061 206.984L3.5998 206.944ZM4.16989 214.809C4.31059 216.144 4.47293 217.467 4.65651 218.778L3.66618 218.917C3.481 217.594 3.31728 216.26 3.1754 214.914L4.16989 214.809ZM5.28177 222.738C5.51187 224.046 5.76351 225.341 6.03629 226.624L5.05815 226.832C4.78292 225.537 4.52904 224.231 4.2969 222.911L5.28177 222.738ZM6.91949 230.443C7.24671 231.751 7.59633 233.046 7.96789 234.327L7.00745 234.606C6.63244 233.313 6.2796 232.006 5.94938 230.686L6.91949 230.443ZM9.14796 238.132C9.56296 239.386 9.99945 240.628 10.457 241.856L9.51989 242.205C9.05804 240.965 8.61744 239.712 8.19855 238.446L9.14796 238.132ZM11.9141 245.552C12.4269 246.785 12.9614 248.003 13.517 249.207L12.609 249.626C12.0481 248.41 11.5085 247.181 10.9909 245.936L11.9141 245.552ZM15.247 252.778C15.8457 253.957 16.4653 255.121 17.1051 256.272L16.2312 256.758C15.5853 255.596 14.9599 254.421 14.3554 253.231L15.247 252.778ZM19.108 259.719C19.7961 260.854 20.5044 261.974 21.2324 263.08L20.3971 263.63C19.6623 262.514 18.9475 261.383 18.253 260.238L19.108 259.719ZM23.4751 266.355C24.2437 267.435 25.0317 268.5 25.8384 269.551L25.0452 270.16C24.2312 269.099 23.4361 268.025 22.6605 266.935L23.4751 266.355ZM28.3158 272.661C29.1601 273.683 30.0227 274.691 30.9031 275.684L30.1547 276.347C29.2667 275.346 28.3965 274.329 27.5448 273.298L28.3158 272.661ZM33.59 278.613C34.5002 279.572 35.4275 280.517 36.3714 281.447L35.6694 282.16C34.7177 281.222 33.7826 280.269 32.8647 279.302L33.59 278.613ZM39.2523 284.196C40.2278 285.097 41.2194 285.983 42.2264 286.855L41.5718 287.611C40.5567 286.732 39.5573 285.839 38.5739 284.93L39.2523 284.196ZM45.2616 289.403C46.2882 290.238 47.3295 291.059 48.3851 291.866L47.7777 292.661C46.7142 291.848 45.665 291.02 44.6305 290.179L45.2616 289.403ZM51.594 294.246C52.6665 295.017 53.7524 295.774 54.8514 296.518L54.2909 297.346C53.1842 296.597 52.0905 295.835 51.0102 295.058L51.594 294.246ZM58.1709 298.698C59.29 299.411 60.4214 300.11 61.5648 300.796L61.0504 301.653C59.8994 300.963 58.7603 300.259 57.6336 299.541L58.1709 298.698ZM65.0169 302.805C66.1646 303.452 67.3233 304.087 68.4926 304.709L68.0233 305.592C66.8466 304.966 65.6805 304.328 64.5254 303.675L65.0169 302.805ZM72.0321 306.533C73.2222 307.128 74.4226 307.71 75.6326 308.279L75.2073 309.184C73.99 308.612 72.7824 308.026 71.5849 307.428L72.0321 306.533ZM79.2485 309.926C80.4574 310.459 81.6753 310.98 82.9017 311.488L82.519 312.412C81.2855 311.901 80.0606 311.377 78.8446 310.84L79.2485 309.926ZM86.6063 312.974C87.8467 313.456 89.0951 313.924 90.3513 314.38L90.0101 315.32C88.7471 314.862 87.4918 314.391 86.2445 313.906L86.6063 312.974ZM94.0933 315.693C95.3479 316.118 96.6095 316.531 97.8778 316.932L97.5768 317.885C96.3019 317.483 95.0336 317.068 93.7723 316.64L94.0933 315.693ZM101.702 318.095C102.975 318.468 104.253 318.829 105.538 319.178L105.276 320.143C103.985 319.792 102.7 319.43 101.421 319.055L101.702 318.095ZM109.384 320.18C110.671 320.502 111.964 320.812 113.262 321.11L113.038 322.084C111.734 321.785 110.435 321.474 109.141 321.15L109.384 320.18ZM117.169 321.967C118.464 322.238 119.764 322.497 121.068 322.744L120.882 323.727C119.572 323.478 118.266 323.218 116.964 322.946L117.169 321.967ZM124.986 323.45C126.296 323.673 127.609 323.884 128.926 324.083L128.776 325.072C127.454 324.872 126.134 324.66 124.818 324.435L124.986 323.45ZM132.881 324.645C134.195 324.82 135.511 324.982 136.829 325.133L136.716 326.127C135.391 325.975 134.069 325.812 132.75 325.637L132.881 324.645ZM140.792 325.551C142.115 325.678 143.441 325.794 144.767 325.898L144.689 326.895C143.357 326.791 142.025 326.674 140.696 326.546L140.792 325.551ZM148.747 326.175C150.072 326.255 151.398 326.324 152.725 326.381L152.682 327.38C151.349 327.322 150.017 327.253 148.686 327.173L148.747 326.175ZM156.709 326.517C158.038 326.55 159.367 326.572 160.697 326.583L160.689 327.583C159.354 327.572 158.018 327.55 156.684 327.516L156.709 326.517ZM164.685 326.579C166.014 326.566 167.343 326.542 168.671 326.505L168.698 327.505C167.364 327.541 166.029 327.566 164.694 327.579L164.685 326.579ZM172.654 326.362C173.981 326.303 175.307 326.231 176.632 326.149L176.695 327.147C175.364 327.23 174.032 327.301 172.699 327.361L172.654 326.362ZM180.613 325.865C181.939 325.758 183.264 325.64 184.586 325.51L184.684 326.505C183.356 326.636 182.025 326.754 180.693 326.861L180.613 325.865ZM188.547 325.085C189.866 324.932 191.183 324.767 192.497 324.59L192.63 325.581C191.31 325.758 189.987 325.924 188.662 326.079L188.547 325.085ZM196.452 324.02C197.767 323.818 199.079 323.605 200.387 323.379L200.557 324.365C199.243 324.591 197.925 324.806 196.603 325.008L196.452 324.02ZM204.302 322.667C205.608 322.417 206.911 322.155 208.209 321.88L208.415 322.859C207.111 323.134 205.803 323.398 204.49 323.649L204.302 322.667ZM212.11 321.017C213.406 320.717 214.697 320.405 215.983 320.081L216.227 321.051C214.935 321.376 213.638 321.69 212.336 321.991L212.11 321.017ZM219.824 319.072C221.111 318.72 222.392 318.357 223.667 317.98L223.95 318.939C222.669 319.318 221.381 319.683 220.088 320.037L219.824 319.072ZM227.485 316.811C228.751 316.409 230.011 315.994 231.264 315.567L231.586 316.513C230.327 316.943 229.061 317.359 227.788 317.764L227.485 316.811ZM235.007 314.246C236.263 313.788 237.512 313.316 238.753 312.832L239.116 313.764C237.868 314.251 236.613 314.725 235.35 315.185L235.007 314.246ZM242.45 311.342C243.675 310.833 244.891 310.31 246.098 309.775L246.503 310.689C245.289 311.228 244.066 311.753 242.835 312.265L242.45 311.342ZM249.722 308.117C250.929 307.548 252.127 306.965 253.315 306.369L253.763 307.263C252.568 307.862 251.363 308.449 250.148 309.022L249.722 308.117ZM256.848 304.542C258.015 303.919 259.172 303.284 260.319 302.635L260.811 303.505C259.658 304.158 258.493 304.798 257.318 305.424L256.848 304.542ZM263.777 300.617C264.918 299.931 266.048 299.232 267.165 298.518L267.703 299.361C266.578 300.079 265.441 300.784 264.292 301.475L263.777 300.617ZM270.48 296.338C271.581 295.592 272.669 294.832 273.744 294.059L274.328 294.87C273.246 295.649 272.15 296.414 271.041 297.166L270.48 296.338ZM276.949 291.68C278.003 290.874 279.044 290.053 280.07 289.218L280.701 289.994C279.667 290.835 278.619 291.662 277.556 292.475L276.949 291.68ZM283.108 286.67C284.115 285.798 285.108 284.911 286.084 284.011L286.762 284.746C285.778 285.654 284.777 286.547 283.762 287.426L283.108 286.67ZM288.966 281.266C289.911 280.337 290.839 279.394 291.751 278.436L292.475 279.126C291.556 280.092 290.62 281.043 289.667 281.979L288.966 281.266ZM294.445 275.51C295.327 274.519 296.192 273.513 297.038 272.493L297.808 273.132C296.954 274.161 296.081 275.175 295.192 276.175L294.445 275.51ZM299.525 269.389C300.334 268.341 301.126 267.279 301.898 266.202L302.711 266.785C301.931 267.872 301.133 268.944 300.316 270.001L299.525 269.389ZM304.154 262.936C304.887 261.833 305.601 260.715 306.295 259.583L307.147 260.106C306.447 261.248 305.727 262.376 304.987 263.489L304.154 262.936ZM308.317 256.144C308.962 254.998 309.588 253.838 310.193 252.664L311.082 253.123C310.471 254.308 309.839 255.478 309.188 256.635L308.317 256.144ZM311.948 249.103C312.512 247.902 313.056 246.687 313.578 245.458L314.499 245.849C313.971 247.089 313.423 248.316 312.853 249.528L311.948 249.103ZM315.063 241.778C315.531 240.552 315.979 239.314 316.405 238.062L317.352 238.385C316.921 239.648 316.47 240.898 315.997 242.135L315.063 241.778ZM317.622 234.267C318.006 232.988 318.369 231.697 318.71 230.392L319.677 230.644C319.333 231.961 318.967 233.264 318.58 234.554L317.622 234.267ZM319.633 226.586C319.92 225.305 320.186 224.012 320.432 222.707L321.414 222.891C321.167 224.208 320.898 225.513 320.608 226.805L319.633 226.586ZM321.104 218.753C321.304 217.445 321.483 216.126 321.64 214.794L322.633 214.912C322.474 216.254 322.294 217.585 322.093 218.903L321.104 218.753ZM322.038 210.898C322.15 209.587 322.243 208.266 322.315 206.934L323.313 206.988C323.241 208.331 323.148 209.662 323.034 210.983L322.038 210.898ZM322.469 202.902C322.485 202.225 322.495 201.545 322.5 200.861L323.5 200.869C323.495 201.557 323.485 202.242 323.469 202.925L322.469 202.902ZM322.5 200.865L322.5 198.807L323.5 198.807L323.5 200.865L322.5 200.865ZM322.5 194.69L322.5 190.574L323.5 190.574L323.5 194.69L322.5 194.69ZM322.5 186.457L322.5 182.341L323.5 182.341L323.5 186.457L322.5 186.457ZM322.5 178.224L322.5 174.107L323.5 174.107L323.5 178.224L322.5 178.224ZM322.5 169.991L322.5 165.874L323.5 165.874L323.5 169.991L322.5 169.991ZM322.5 161.758L322.5 157.641L323.5 157.641L323.5 161.758L322.5 161.758ZM322.5 153.525L322.5 149.408L323.5 149.408L323.5 153.525L322.5 153.525ZM322.5 145.291L322.5 141.175L323.5 141.175L323.5 145.291L322.5 145.291ZM322.5 137.058L322.5 135L323.5 135L323.5 137.058L322.5 137.058ZM322.5 135C322.5 134.319 322.505 133.64 322.516 132.962L323.516 132.977C323.505 133.65 323.5 134.324 323.5 135L322.5 135ZM322.639 128.912C322.701 127.569 322.783 126.231 322.885 124.901L323.882 124.977C323.781 126.298 323.699 127.625 323.638 128.958L322.639 128.912ZM323.258 120.855C323.403 119.513 323.569 118.178 323.755 116.849L324.745 116.988C324.561 118.306 324.396 119.631 324.252 120.963L323.258 120.855ZM324.377 112.857C324.606 111.523 324.856 110.197 325.126 108.878L326.106 109.079C325.838 110.387 325.59 111.703 325.362 113.027L324.377 112.857ZM325.997 104.946C326.311 103.627 326.645 102.317 326.999 101.015L327.964 101.278C327.612 102.569 327.281 103.869 326.97 105.177L325.997 104.946ZM328.12 97.1367C328.516 95.8452 328.932 94.5626 329.367 93.2892L330.313 93.6125C329.881 94.8758 329.469 96.1483 329.076 97.4297L328.12 97.1367ZM330.735 89.4834C331.211 88.2224 331.707 86.971 332.221 85.7295L333.145 86.1123C332.635 87.344 332.143 88.5856 331.671 89.8367L330.735 89.4834ZM333.83 82.015C334.385 80.787 334.959 79.5692 335.551 78.362L336.449 78.8024C335.861 80.0002 335.292 81.2085 334.741 82.4269L333.83 82.015ZM337.39 74.7584C338.022 73.5671 338.671 72.3867 339.339 71.2175L340.208 71.7134C339.545 72.8736 338.9 74.0448 338.273 75.2269L337.39 74.7584ZM341.398 67.7394C342.103 66.5899 342.825 65.4518 343.565 64.3256L344.401 64.8745C343.667 65.9921 342.95 67.1214 342.251 68.2621L341.398 67.7394ZM345.835 60.9821C346.609 59.8787 347.4 58.7875 348.207 57.7085L349.008 58.3076C348.207 59.3784 347.422 60.4615 346.653 61.5564L345.835 60.9821ZM350.678 54.509C351.518 53.4556 352.373 52.4147 353.244 51.3868L354.007 52.0333C353.142 53.0536 352.293 54.0866 351.46 55.1322L350.678 54.509ZM355.904 48.3422C356.805 47.3412 357.721 46.3533 358.653 45.3788L359.376 46.0697C358.451 47.0371 357.541 48.0177 356.647 49.0113L355.904 48.3422ZM361.487 42.4991C362.447 41.5528 363.421 40.6202 364.409 39.7014L365.09 40.4337C364.109 41.3458 363.142 42.2717 362.19 43.2111L361.487 42.4991ZM367.406 36.995C368.418 36.1069 369.445 35.2328 370.485 34.3731L371.122 35.1437C370.09 35.9973 369.071 36.8651 368.065 37.7469L367.406 36.995ZM373.635 31.8437C374.696 31.0162 375.77 30.2032 376.857 29.4049L377.449 30.2109C376.37 31.0035 375.303 31.8108 374.249 32.6324L373.635 31.8437ZM380.15 27.0577C381.256 26.2929 382.374 25.5429 383.503 24.8081L384.048 25.6463C382.927 26.376 381.817 27.1207 380.719 27.8801L380.15 27.0577ZM386.926 22.6494C388.072 21.9485 389.23 21.263 390.399 20.5929L390.896 21.4604C389.736 22.1258 388.586 22.8066 387.447 23.5026L386.926 22.6494ZM393.934 18.6308C395.119 17.9943 396.314 17.3734 397.52 16.7684L397.969 17.6622C396.771 18.263 395.584 18.8796 394.407 19.5118L393.934 18.6308ZM401.154 15.0073C402.375 14.4364 403.605 13.8815 404.845 13.3429L405.243 14.26C404.012 14.795 402.79 15.3461 401.578 15.9131L401.154 15.0073ZM408.565 11.7864C409.814 11.2838 411.072 10.7975 412.338 10.3277L412.686 11.2653C411.428 11.7319 410.179 12.2149 408.938 12.7141L408.565 11.7864ZM416.143 8.97465C417.416 8.54152 418.696 8.12493 419.984 7.72511L420.281 8.68016C419.001 9.0773 417.729 9.4911 416.465 9.92131L416.143 8.97465ZM423.866 6.57759C425.158 6.21472 426.456 5.86856 427.762 5.53934L428.006 6.50899C426.709 6.83601 425.419 7.17987 424.136 7.54032L423.866 6.57759ZM431.699 4.60275C433.009 4.30957 434.326 4.03335 435.649 3.77432L435.841 4.75568C434.527 5.013 433.219 5.2874 431.917 5.57863L431.699 4.60275ZM439.623 3.05123C440.951 2.82781 442.285 2.62163 443.625 2.43292L443.764 3.42314C442.434 3.61061 441.108 3.81543 439.789 4.03737L439.623 3.05123ZM447.622 1.92365C448.96 1.77119 450.302 1.6361 451.649 1.51859L451.736 2.51481C450.398 2.63155 449.064 2.76575 447.735 2.91721L447.622 1.92365ZM455.674 1.22094C457.014 1.13957 458.359 1.07557 459.707 1.02917L459.741 2.02858C458.402 2.07468 457.066 2.13826 455.735 2.2191L455.674 1.22094ZM463.761 0.942963C465.098 0.932071 466.44 0.938503 467.785 0.962462L467.767 1.9623C466.431 1.9385 465.098 1.93211 463.769 1.94293L463.761 0.942963ZM471.829 1.08712C473.171 1.14593 474.515 1.22221 475.863 1.31619L475.793 2.31377C474.454 2.22039 473.118 2.14459 471.785 2.08616L471.829 1.08712ZM479.881 1.64817C481.222 1.77635 482.566 1.92212 483.913 2.08568L483.792 3.07838C482.454 2.91586 481.119 2.77101 479.785 2.64364L479.881 1.64817ZM487.902 2.62166C489.23 2.81713 490.56 3.02998 491.891 3.26039L491.72 4.24573C490.397 4.01676 489.076 3.80524 487.757 3.61099L487.902 2.62166ZM495.879 4.00246C497.188 4.26313 498.498 4.54087 499.81 4.83588L499.59 5.8115C498.287 5.5183 496.984 5.24226 495.683 4.98321L495.879 4.00246ZM503.747 5.77286C505.05 6.09984 506.353 6.44398 507.657 6.80543L507.39 7.76908C506.094 7.40981 504.798 7.06776 503.504 6.74276L503.747 5.77286ZM511.521 7.92704C512.809 8.31791 514.098 8.72583 515.387 9.15097L515.074 10.1006C513.792 9.67801 512.511 9.27252 511.231 8.88398L511.521 7.92704ZM519.2 10.4592C520.46 10.9081 521.719 11.3735 522.979 11.8556L522.621 12.7895C521.369 12.3101 520.117 11.8474 518.865 11.4012L519.2 10.4592ZM526.755 13.3525C527.99 13.8588 529.224 14.3813 530.458 14.9203L530.057 15.8366C528.831 15.3007 527.603 14.7811 526.375 14.2778L526.755 13.3525ZM534.132 16.5756C535.357 17.1437 536.58 17.7281 537.802 18.329L537.361 19.2264C536.145 18.6288 534.929 18.0476 533.711 17.4827L534.132 16.5756ZM541.384 20.1397C542.571 20.756 543.757 21.388 544.941 22.0359L544.461 22.9132C543.283 22.2687 542.104 21.6401 540.923 21.0272L541.384 20.1397ZM548.489 24.0274C549.643 24.6913 550.795 25.3705 551.946 26.0652L551.429 26.9212C550.284 26.2302 549.138 25.5545 547.99 24.8941L548.489 24.0274ZM555.372 28.1826C556.512 28.9037 557.65 29.6401 558.787 30.392L558.235 31.226C557.104 30.4779 555.972 29.7452 554.837 29.0277L555.372 28.1826ZM562.116 32.643C563.213 33.4009 564.308 34.1734 565.401 34.9607L564.817 35.7721C563.729 34.9887 562.639 34.2199 561.547 33.4657L562.116 32.643ZM568.673 37.3668C569.217 37.7751 569.761 38.1872 570.304 38.603L569.696 39.397C569.156 38.9831 568.615 38.573 568.073 38.1666L568.673 37.3668ZM570 39C570.279 38.5848 570.279 38.5848 570.279 38.5848C570.279 38.5848 570.279 38.5848 570.279 38.5848C570.279 38.5848 570.279 38.5848 570.279 38.5848C570.279 38.5848 570.279 38.5849 570.279 38.5849C570.279 38.5851 570.279 38.5853 570.28 38.5857C570.281 38.5863 570.282 38.5874 570.285 38.5888C570.289 38.5916 570.295 38.5958 570.304 38.6015C570.321 38.6129 570.346 38.6301 570.381 38.6529C570.45 38.6984 570.553 38.7666 570.69 38.8563C570.965 39.0358 571.374 39.3015 571.915 39.6456L571.378 40.4892C570.834 40.1428 570.421 39.8748 570.143 39.6932C570.004 39.6024 569.899 39.5332 569.829 39.4865C569.793 39.4632 569.767 39.4455 569.749 39.4336C569.74 39.4276 569.733 39.4231 569.729 39.42C569.726 39.4185 569.725 39.4173 569.723 39.4165C569.723 39.4161 569.722 39.4158 569.722 39.4156C569.722 39.4155 569.722 39.4154 569.722 39.4154C569.722 39.4153 569.722 39.4153 569.722 39.4153C569.721 39.4153 569.721 39.4153 569.721 39.4153C569.721 39.4152 569.721 39.4152 570 39ZM575.309 41.7557C576.297 42.3574 577.424 43.0339 578.685 43.7757L578.177 44.6375C576.913 43.8931 575.781 43.214 574.789 42.6098L575.309 41.7557ZM582.143 45.78C583.234 46.4031 584.395 47.0573 585.623 47.7389L585.138 48.6132C583.906 47.9297 582.742 47.2735 581.647 46.6485L582.143 45.78ZM589.114 49.6495C590.236 50.2559 591.404 50.8788 592.616 51.5161L592.151 52.4012C590.936 51.7621 589.764 51.1375 588.638 50.5294L589.114 49.6495ZM596.137 53.3436C597.285 53.9319 598.467 54.5299 599.681 55.136L599.235 56.0307C598.017 55.423 596.832 54.8234 595.681 54.2336L596.137 53.3436ZM603.253 56.8958C604.428 57.4669 605.629 58.0436 606.856 58.6248L606.428 59.5285C605.198 58.9459 603.993 58.3677 602.816 57.7952L603.253 56.8958ZM610.457 60.3074C611.639 60.8522 612.842 61.3997 614.066 61.9492L613.657 62.8615C612.429 62.3107 611.223 61.7617 610.038 61.2155L610.457 60.3074ZM617.712 63.5632C618.915 64.0883 620.137 64.6143 621.376 65.1403L620.986 66.0608C619.743 65.5335 618.518 65.0062 617.312 64.4797L617.712 63.5632ZM625.031 66.669C626.247 67.1704 627.479 67.671 628.727 68.1703L628.355 69.0987C627.104 68.5981 625.869 68.0962 624.65 67.5935L625.031 66.669ZM632.428 69.629C633.651 70.1035 634.887 70.576 636.137 71.0459L635.785 71.982C634.532 71.5108 633.292 71.037 632.066 70.5613L632.428 69.629ZM639.887 72.4331C641.118 72.8809 642.361 73.3258 643.615 73.7671L643.284 74.7104C642.025 74.2679 640.779 73.8219 639.545 73.3729L639.887 72.4331ZM647.382 75.0688C648.629 75.4921 649.886 75.9116 651.155 76.3266L650.844 77.277C649.572 76.8608 648.311 76.4402 647.06 76.0158L647.382 75.0688ZM654.939 77.5415C656.2 77.9384 657.47 78.3306 658.75 78.7177L658.461 79.6749C657.177 79.2867 655.903 78.8934 654.639 78.4953L654.939 77.5415ZM662.553 79.844C663.826 80.2127 665.106 80.5761 666.396 80.9335L666.129 81.8971C664.836 81.5387 663.551 81.1743 662.275 80.8045L662.553 79.844ZM670.22 81.9692C671.5 82.3076 672.787 82.6398 674.082 82.9655L673.838 83.9353C672.539 83.6086 671.248 83.2754 669.965 82.936L670.22 81.9692ZM677.936 83.91C679.223 84.2169 680.517 84.517 681.817 84.8101L681.597 85.7856C680.293 85.4917 678.995 85.1905 677.704 84.8827L677.936 83.91ZM685.698 85.6588C686.991 85.933 688.291 86.2 689.597 86.4593L689.402 87.4401C688.092 87.18 686.788 86.9122 685.49 86.637L685.698 85.6588ZM693.501 87.2077C694.8 87.4481 696.106 87.6806 697.417 87.9049L697.249 88.8906C695.933 88.6655 694.623 88.4322 693.319 88.191L693.501 87.2077ZM701.341 88.5486C702.647 88.7537 703.958 88.9504 705.274 89.1384L705.133 90.1284C703.812 89.9397 702.496 89.7423 701.186 89.5365L701.341 88.5486ZM709.214 89.673C710.526 89.8414 711.842 90.001 713.162 90.1513L713.049 91.1449C711.724 90.994 710.403 90.8339 709.087 90.6649L709.214 89.673ZM717.116 90.5721C718.432 90.7024 719.752 90.8233 721.075 90.9344L720.992 91.9309C719.663 91.8194 718.338 91.698 717.018 91.5673L717.116 90.5721Z" fill="#75BEDB"/>
</svg>
