<svg width="440" height="440" viewBox="0 0 440 440" fill="none" xmlns="http://www.w3.org/2000/svg">
<g clip-path="url(#clip0)">
<path d="M106.271 220.63C106.271 157.863 155.405 104.122 220 104.122C284.806 104.122 333.941 157.863 333.729 220.63C333.729 282.767 283.747 336.088 220 336.088C156.252 336.088 106.271 282.977 106.271 220.63Z" fill="#F7F7F7"/>
<path fill-rule="evenodd" clip-rule="evenodd" d="M441 220C441 341.503 342.055 440 220 440C97.9447 440 -1 341.503 -1 220C-1 98.4974 97.9447 0 220 0C342.055 0 441 98.4974 441 220ZM44.5491 221.05C44.5491 317.195 123.84 393.817 220 393.817C316.16 393.817 395.45 317.195 395.45 221.05C395.45 123.855 317.004 46.3931 220 46.3931C122.996 46.3931 44.5491 124.065 44.5491 221.05Z" fill="#F7F7F7"/>
</g>
<defs>
<clipPath id="clip0">
<rect width="440" height="440" fill="white"/>
</clipPath>
</defs>
</svg>
