<svg width="48" height="16" viewBox="0 0 48 16" fill="none" xmlns="http://www.w3.org/2000/svg">
<path d="M19.2195 0.495668L16.78 15.0281H20.6815L23.123 0.495668H19.2195Z" fill="white" fill-opacity="0.2"/>
<path d="M13.5087 0.511968L9.6875 10.4227L9.28009 8.92623C8.52649 7.12317 6.38709 4.5337 3.8754 2.90178L7.36949 15.021L11.4978 15.0138L17.642 0.508912L13.5087 0.511968Z" fill="white" fill-opacity="0.2"/>
<path d="M7.79897 1.55204C7.57219 0.666806 6.91491 0.402969 6.09909 0.37139H0.0501735L0 0.660694C4.70728 1.81995 7.82205 4.61316 9.11452 7.97173L7.79897 1.55204Z" fill="white" fill-opacity="0.2"/>
<path d="M31.0303 3.28175C32.3067 3.26137 33.2319 3.54456 33.9504 3.83794L34.3026 4.00603L34.8305 0.85628C34.0578 0.561882 32.8466 0.246094 31.3354 0.246094C27.48 0.246094 24.7626 2.21723 24.7416 5.04202C24.7165 7.12928 26.6773 8.29465 28.1584 8.99041C29.6786 9.70348 30.1884 10.1568 30.1814 10.7935C30.1693 11.7663 28.9692 12.2125 27.8483 12.2125C26.2859 12.2125 25.456 11.9935 24.1746 11.4515L23.6719 11.2193L23.123 14.4719C24.0361 14.8784 25.721 15.2278 27.47 15.2461C31.5712 15.2461 34.2364 13.2984 34.2645 10.28C34.2816 8.62878 33.241 7.36867 30.9862 6.33472C29.6214 5.66036 28.7866 5.21214 28.7946 4.53166C28.7946 3.92759 29.503 3.28175 31.0303 3.28175Z" fill="white" fill-opacity="0.2"/>
<path d="M44.8431 0.511968H41.8287C40.8924 0.511968 40.196 0.770711 39.7846 1.71808L33.9916 15.0362H38.0887C38.0887 15.0362 38.757 13.2454 38.9086 12.8532C39.3571 12.8532 43.3379 12.8593 43.9048 12.8593C44.0212 13.3666 44.3805 15.0362 44.3805 15.0362H48L44.8431 0.511968ZM40.0314 9.87869C40.3526 9.0444 41.5858 5.81723 41.5858 5.81723C41.5647 5.85696 41.9039 4.97682 42.1056 4.42979L42.3685 5.68277C42.3685 5.68277 43.1161 9.15238 43.2727 9.87869H40.0314Z" fill="white" fill-opacity="0.2"/>
</svg>
