<svg width="20" height="22" viewBox="0 0 20 22" fill="none" xmlns="http://www.w3.org/2000/svg">
<path fill-rule="evenodd" clip-rule="evenodd" d="M4.85724 19.5703C4.89315 20.2846 4.93238 21.0649 4.93238 21.5C4.94905 21.4847 5.03218 21.4158 5.16379 21.3069C5.71211 20.8529 7.10194 19.7024 8.0326 18.8204C8.22103 18.6155 8.40442 18.4598 8.71485 18.4713C10.9564 18.5542 13.1649 18.3453 15.3462 17.8007C17.2495 17.3254 18.6059 16.2601 19.31 14.4369C19.678 13.4835 19.7962 12.4826 19.8884 11.469C20.0787 9.37467 20.0677 7.29896 19.5198 5.25221C19.2788 4.35119 18.9069 3.50559 18.2872 2.78965C17.4191 1.78684 16.2109 1.38716 14.9861 1.04456C13.836 0.722809 12.6554 0.587095 11.4584 0.540411C8.98987 0.44411 6.54617 0.457248 4.17272 1.30502C2.17852 2.0172 0.970722 3.39373 0.477098 5.3827C-0.0811445 7.63155 -0.102339 9.91682 0.171516 12.2073C0.312708 13.3888 0.643815 14.5094 1.31624 15.516C2.06879 16.6427 3.12699 17.3542 4.41149 17.7607C4.6226 17.8276 4.79855 17.902 4.79901 18.1577C4.79954 18.4224 4.82723 18.9732 4.85724 19.5703ZM15.4021 9.86248C15.4021 10.1182 15.6121 10.3256 15.8713 10.3256C16.1306 10.3256 16.3406 10.1182 16.3406 9.86242C16.3406 6.14347 13.2749 3.11777 9.50681 3.11777C9.24769 3.11777 9.03755 3.32517 9.03755 3.58091C9.03755 3.83665 9.24769 4.04404 9.50681 4.04404C12.7573 4.04404 15.4021 6.65412 15.4021 9.86248ZM14.0053 14.918C14.404 14.5349 14.8034 14.1338 14.8849 13.4154C14.8656 13.3793 14.8472 13.3324 14.8269 13.2809C14.7756 13.1506 14.7127 12.9905 14.5947 12.9C13.9413 12.3985 13.2643 11.9245 12.5759 11.4701C12.1839 11.2113 11.6569 11.3303 11.3569 11.6903C11.2879 11.7732 11.2213 11.8581 11.1546 11.943C11.1198 11.9874 11.0849 12.0319 11.0497 12.0761C10.853 12.3225 10.598 12.4483 10.2922 12.334L10.2372 12.3135C9.89556 12.186 9.54614 12.0557 9.24485 11.8599C8.30406 11.2486 7.52463 10.4901 7.16192 9.39461C7.00238 8.91279 7.06441 8.68632 7.46305 8.36056C7.52198 8.31239 7.57993 8.26302 7.63789 8.21366C7.72232 8.14175 7.80683 8.06977 7.89425 8.00156C8.1955 7.76636 8.22458 7.44621 8.09276 7.14257C7.70375 6.24697 7.10377 5.4925 6.37028 4.8471C6.10689 4.61527 5.75646 4.59761 5.46729 4.77618C5.06646 5.02375 4.68721 5.31291 4.33006 5.61967C3.94158 5.95328 3.85751 6.38715 4.01795 6.87376C4.63164 8.7353 5.67491 10.3449 7.00897 11.7725C8.13515 12.9776 9.4409 13.9646 10.9291 14.703C11.4031 14.9383 11.8858 15.1601 12.3782 15.3546C13.0191 15.6078 13.555 15.3507 14.0053 14.918ZM14.1355 10.3256C13.8763 10.3256 13.6663 10.1182 13.6663 9.86247C13.6663 7.59888 11.8003 5.75717 9.50682 5.75717C9.24769 5.75717 9.03755 5.54978 9.03755 5.29404C9.03755 5.0383 9.24769 4.8309 9.50682 4.8309C12.3178 4.8309 14.6048 7.08798 14.6048 9.86241C14.6048 10.1182 14.3948 10.3256 14.1355 10.3256ZM11.9306 9.86248C11.9306 10.1182 12.1407 10.3256 12.3999 10.3256C12.6591 10.3256 12.8691 10.1182 12.8691 9.86242C12.8691 8.03269 11.3607 6.54405 9.50681 6.54405C9.24769 6.54405 9.03755 6.75144 9.03755 7.00718C9.03755 7.26292 9.24769 7.47032 9.50681 7.47032C10.8433 7.47032 11.9306 8.54347 11.9306 9.86248Z" fill="#8E4EC9"/>
</svg>
