<svg width="60" height="60" viewBox="0 0 60 60" fill="none" xmlns="http://www.w3.org/2000/svg">
<path d="M46.5542 2.95928V0H18.4191V9.91313" fill="#365B78"/>
<path d="M53.3025 4.89793C52.8283 3.02278 50.9013 1.88577 49.0148 2.35452L14.2385 10.9523C12.6647 11.3413 11.5649 12.7377 11.5649 14.3335V59.0525H18.6271V17.0665L49.8722 9.33647L50.7298 9.12698C52.6164 8.65822 53.7666 6.7631 53.3025 4.89793Z" fill="#75BEDB"/>
<path d="M59.0367 58.0951H50.8355C50.8356 57.7159 50.8401 6.87245 50.8393 10.0809L50.9644 10.0503C53.3598 9.45595 54.8275 7.04271 54.2376 4.67039C54.2376 4.669 54.2376 4.66807 54.2366 4.66667C53.6296 2.26695 51.1702 0.835145 48.7817 1.43026L14.004 10.028C12.001 10.5237 10.602 12.2942 10.602 14.3336V58.0951H5.75111V49.8317C5.75111 49.3058 5.32021 48.8793 4.78771 48.8793C4.2552 48.8793 3.8243 49.3058 3.8243 49.8317V58.0951H1.47317C0.940669 58.0951 0.509766 58.5215 0.509766 59.0475C0.509766 59.5735 0.940669 60 1.47317 60H59.0367C59.5692 60 60.0001 59.5735 60.0001 59.0475C60.0001 58.5215 59.5692 58.0951 59.0367 58.0951ZM38.4928 37.9902H30V29.7152H38.4928V37.9902ZM28.0732 37.9902H19.5907V29.7152H28.0732V37.9902ZM30 27.6987V19.5326H38.4928V27.6987H30ZM28.0704 17.5188H20.7758L28.0704 15.7144V17.5188ZM48.9087 17.5188H40.4225V12.6562L48.9087 10.5568V17.5188ZM38.4957 17.5188H29.9972V15.2372C30.0947 15.2131 39.0551 12.9944 38.4957 13.1329V17.5188ZM19.5907 27.6987V19.5326H28.0732V27.6987H19.5907ZM40.4197 19.5326H48.9087V27.6987H40.4197V19.5326ZM40.4197 29.7152H48.9087V37.9902H40.4197V29.7152ZM12.5288 14.3336C12.5288 13.17 13.3276 12.1594 14.4716 11.8762L49.2502 3.27799C50.6093 2.93827 52.0179 3.75404 52.3672 5.12664C52.704 6.48325 51.8648 7.8631 50.4987 8.20213C50.4018 8.22606 17.7634 16.2951 18.393 16.1422C17.9649 16.2483 17.6639 16.6292 17.6639 17.0663V17.0687C17.6446 19.9059 17.6515 19.4612 17.6639 58.0951H12.5288V14.3336H12.5288ZM27.5679 47.2246H33.2863V58.0039H27.5679V47.2246ZM40.9315 47.2246V58.0039H35.2131V47.2246H40.9315ZM42.8583 58.0951V47.2246H44.6656C45.1981 47.2246 45.629 46.7981 45.629 46.2721C45.629 45.7461 45.1981 45.3197 44.6656 45.3197C38.2361 45.3197 30.2656 45.3197 23.8338 45.3197C23.3013 45.3197 22.8704 45.7461 22.8704 46.2721C22.8704 46.7981 23.3013 47.2246 23.8338 47.2246H25.6411V58.0951H19.5907V39.8951H39.4562H48.9087V58.0951H42.8583Z" fill="white"/>
<path d="M9.57492 49.587C9.57492 51.1693 8.27976 52.4497 6.67923 52.4497C5.95774 52.4497 5.29157 52.1845 4.79209 51.7455C4.29261 52.1845 3.62645 52.4497 2.89569 52.4497C1.29517 52.4497 0 51.1693 0 49.587C0 48.3615 0.786429 47.3097 1.89651 46.9164C1.88726 46.889 1.88726 46.8524 1.88726 46.825C1.88726 45.2519 3.18242 43.9714 4.78284 43.9714C6.38326 43.9714 7.68769 45.2519 7.68769 46.825C7.68769 46.8524 7.68769 46.889 7.67843 46.9164C8.7885 47.3097 9.57492 48.3615 9.57492 49.587Z" fill="#A6D9EC"/>
</svg>
