<svg width="56" height="44" viewBox="0 0 56 44" fill="none" xmlns="http://www.w3.org/2000/svg">
<path d="M9.13495 6.31683H16.163V29.843H9.13495V6.31683Z" fill="#1CA57C"/>
<path d="M12.2115 26.0618C11.7279 26.0618 11.3365 25.6655 11.3365 25.1767V10.9823C11.3365 10.4935 11.7279 10.0972 12.2115 10.0972C12.6952 10.0972 13.0865 10.4935 13.0865 10.9823V25.1767C13.0865 25.6655 12.6952 26.0618 12.2115 26.0618Z" fill="#A6D9EC"/>
<path d="M18.0547 5.06079H25.0827V29.8429H18.0547V5.06079Z" fill="#1CA57C"/>
<path d="M25.0821 9.68322H18.0547C17.5711 9.68322 17.1797 9.2869 17.1797 8.79809C17.1797 8.30928 17.5711 7.91296 18.0547 7.91296H25.0821C25.5657 7.91296 25.9571 8.30928 25.9571 8.79809C25.9571 9.2869 25.5657 9.68322 25.0821 9.68322Z" fill="#A6D9EC"/>
<path d="M21.3907 22.4112C20.907 22.4112 20.5157 22.0149 20.5157 21.5261V15.3443C20.5157 14.8555 20.907 14.4592 21.3907 14.4592C21.8743 14.4592 22.2657 14.8555 22.2657 15.3443V21.5261C22.2657 22.0149 21.8743 22.4112 21.3907 22.4112Z" fill="#A6D9EC"/>
<path d="M28 35.5067C28.9839 35.5067 29.7815 34.7 29.7815 33.7047C29.7815 32.7095 28.9839 31.9027 28 31.9027C27.0161 31.9027 26.2185 32.7095 26.2185 33.7047C26.2185 34.7 27.0161 35.5067 28 35.5067Z" fill="white"/>
<path d="M53.1315 0H2.86853C1.28686 0 0 1.30173 0 2.9021V35.5474C0 37.1478 1.28686 38.4495 2.86939 38.4495H22.9961L20.0698 42.2298H16.343C15.8594 42.2298 15.468 42.6261 15.468 43.1149C15.468 43.6037 15.8594 44 16.343 44H39.6553C40.1389 44 40.5303 43.6037 40.5303 43.1149C40.5303 42.6261 40.1389 42.2298 39.6553 42.2298H35.9277L33.0013 38.4495H53.1315C54.7131 38.4495 56 37.1478 56 35.5474C56 23.8226 56 15.2138 56 2.9021C56 1.30173 54.7131 0 53.1315 0ZM22.292 42.2298L25.2186 38.4499H30.7788L33.7054 42.2298H22.292ZM1.75 2.9021C1.75 2.27803 2.25158 1.77022 2.86853 1.77022H53.1315C53.7484 1.77022 54.25 2.27803 54.25 2.9021V28.9575H49.8566C49.7819 28.9275 49.7067 28.8969 49.6229 28.8888C48.1109 28.7428 47.003 27.4315 47.003 25.9828C47.003 24.5559 48.0862 23.2251 49.6229 23.0768C49.6975 23.0695 49.7634 23.0362 49.831 23.0081H51.161C51.6446 23.0081 52.036 22.5391 52.036 22.0503C52.036 21.5944 51.6934 21.2128 51.2447 21.1691C50.1211 21.0602 49.1589 20.2948 48.7855 19.1988C48.6787 18.9093 48.6249 18.5942 48.6249 18.2631C48.6249 17.9321 48.6787 17.617 48.7855 17.3275C48.7881 17.3206 48.7906 17.3136 48.7923 17.3067C49.1589 16.2315 50.1211 15.4661 51.2447 15.3571C51.6933 15.3135 52.036 14.8593 52.036 14.4033C52.036 13.9145 51.6446 13.5182 51.161 13.5182H37.208C35.9622 13.5182 34.7838 14.0087 33.8866 14.9038C33.0039 15.7967 32.5177 16.9895 32.5177 18.2631C32.5177 19.552 33.0318 20.7192 33.859 21.5752C32.0311 22.306 30.895 24.0414 30.895 25.9828C30.895 27.1146 31.3052 28.1411 31.9614 28.9575H1.75V2.9021ZM32.645 25.9828C32.645 24.3028 33.9762 23.0081 35.5862 23.0081H46.3135C45.8326 23.6 45.5003 24.3001 45.3445 25.0972H36.6372C36.1536 25.0972 35.7622 25.4935 35.7622 25.9823C35.7622 26.4711 36.1536 26.8674 36.6372 26.8674H45.3436C45.4967 27.6539 45.8296 28.3627 46.3135 28.9575H35.5862C33.9644 28.9575 32.645 27.6229 32.645 25.9828ZM47.1415 16.7207C47.0642 16.9327 47.0107 17.1537 46.967 17.3776H38.2599C37.7763 17.3776 37.3849 17.7739 37.3849 18.2627C37.3849 18.7515 37.7763 19.1478 38.2599 19.1478H46.9659C47.0093 19.3711 47.0623 19.5903 47.1381 19.7952C47.3192 20.3294 47.5918 20.8156 47.9353 21.2378H37.208C35.587 21.2378 34.2677 19.9033 34.2677 18.2631C34.2677 17.4627 34.5719 16.7142 35.1196 16.1597C35.6827 15.5979 36.4244 15.2884 37.208 15.2884H47.9353C47.5944 15.7081 47.3226 16.1908 47.1415 16.7207ZM54.25 35.5474C54.25 36.1715 53.7484 36.6793 53.1315 36.6793H2.86939C2.25244 36.6793 1.75 36.1715 1.75 35.5474V30.7277H54.25V35.5474Z" fill="#A6D9EC"/>
</svg>
